Haushaltstyp;1 Person;2 Personen;3 Personen;4 Personen;5 Personen und mehr;verweigert;weiß nicht;keine Angabe
junge Alleinlebende;100;0;0;0;0;0;0;0
Alleinlebende mittleren Alters;100;0;0;0;0;0;0;0
Ältere Alleinlebende;100;0;0;0;0;0;0;0
junge Zweipersonenhaushalte;0;100;0;0;0;0;0;0
Zweipersonenhaushalte mittleren Alters;0;100;0;0;0;0;0;0
Ältere Zweipersonenhaushalte;0;100;0;0;0;0;0;0
Haushalte mit mind. 3 Erwachsenen;0;0;72.6;23.3;4.1;0;0;0
Haushalte mit mind. 1 Kind unter 6 Jahren;0;0;38.4;42.2;19.4;0;0;0
Haushalte mit mind. 1 Kind unter 14 Jahren;0;0;27.3;49.7;23;0;0;0
Haushalte mit mind. 1 Kind unter 18 Jahren;0;0;42.2;45.3;12.5;0;0;0
Alleinerziehende;0;57.8;34;5.4;2.7;0;0;0
