Haushaltstyp;kein Auto;1 Auto;2 Autos;3 Autos;4 und mehr Autos;verweigert;weiß nicht;keine Angabe
junge Alleinlebende;37.6;57.8;3.2;0.9;0.4;0;0.2;0
Alleinlebende mittleren Alters;25.1;69.1;4.6;0.8;0.2;0;0.1;0
Ältere Alleinlebende;45.5;52.3;1.7;0.3;0;0;0.1;0.1
junge Zweipersonenhaushalte;15.9;42.9;39.6;1.2;0.4;0;0;0
Zweipersonenhaushalte mittleren Alters;4.4;50;42.5;2.5;0.5;0;0;0
Ältere Zweipersonenhaushalte;8.3;73.2;17.6;0.7;0.1;0;0;0
Haushalte mit mind. 3 Erwachsenen;2.5;22.4;46.2;23;6;0;0;0
Haushalte mit mind. 1 Kind unter 6 Jahren;3;42.1;51.1;2.6;1.2;0;0;0
Haushalte mit mind. 1 Kind unter 14 Jahren;1.9;38.6;52.4;5.6;1.4;0;0;0
Haushalte mit mind. 1 Kind unter 18 Jahren;2.4;35.3;48.2;11.8;2.2;0;0;0
Alleinerziehende;22.9;75;1.7;0.1;0.2;0.1;0;0
