Hauptzweck des Weges;5 bis 8;8 bis 10;10 bis 13;13 bis 16;16 bis 19;19 bis 22;22 bis 5;keine Angabe
Arbeit;33.9;11.2;9.8;16.6;19.5;5.5;3.6;0
dienstlich;11;15.7;20.1;19.8;23.5;6.7;3.2;0
Ausbildung;37.4;11.9;15.8;26.3;7.4;0.9;0.3;0
Einkauf;2.5;16.3;32.8;21.6;22.1;4.5;0.2;0
Erledigung;3.7;15.9;26.1;21.9;22.3;8;2.1;0
Freizeit;2.1;6.9;16.5;23.4;28;16.3;6.7;0
Begleitung;9.4;13;18.6;24;24.9;8.4;1.8;0
