verhaltenshomogene Personengruppen;Ja;Nein;verweigert;weiß nicht
Erwerbstätige mit verfügbarem Auto;98.4;1.6;0;0
Erwerbstätige ohne Auto;77.3;22.7;0;0
Nichterwerbstätige mit verfügbarem Auto;92.7;7.3;0;0
Nichterwerbstätige ohne Auto;49.1;50.9;0;0
Studenten mit verfügbarem Auto;96.8;3.2;0;0
Studenten ohne Auto;86.9;13.1;0;0
Auszubildende mit verfügbarem Auto;81;19;0;0
Auszubildende ohne Auto;51;49;0;0
Schüler ab 11 Jahren mit verfügbarem Auto;40;60;0;0
Schüler ab 11 Jahren ohne Auto;22.5;77.5;0;0
